<svg id="Layer_1" data-name="Layer 1" xmlns="http://www.w3.org/2000/svg" viewBox="0 0 101.86 42.91">
  <title>swirl</title>
  <path d="M101.92,20.2c-1-4.4-3.47-8.31-3.43-13a8.22,8.22,0,0,1,.86-4c.4-.71,1.65-2.5,2.5-2.69a6.8,6.8,0,0,0-1.66.67c-4.62,2.45-6.13,8-4.44,12.81s6.39,10,4.83,14.92c.43-4.58-2.39-9.53-7.36-9.74-4.81-.2-9.54,4.78-6.88,8.94a3.5,3.5,0,0,0,.88,1.07l.12.12a.55.55,0,0,0,.2.11,3.47,3.47,0,0,0,1.83.53A3.55,3.55,0,0,0,92,28.69a2.91,2.91,0,0,0-.72-4.21,2.83,2.83,0,0,0-3.55.59,2.57,2.57,0,0,0,.14,3.35,2.14,2.14,0,0,1-1-.75c-1.35-1.76-.27-4.78,1.43-5.94a6.53,6.53,0,0,1,5.6-1,5.09,5.09,0,0,1,3.28,2.8,9.49,9.49,0,0,1,.16,9.09A5.81,5.81,0,0,1,90.71,36a5.56,5.56,0,0,0,2.06-.64,6.3,6.3,0,0,0,2.55-3.83,8.14,8.14,0,0,0-.78-5.1A6.31,6.31,0,0,1,94,29.93c-1.4,3.06-5.09,4.6-8.3,4.16a19.1,19.1,0,0,1-5.12-1.83,18.45,18.45,0,0,1-4.37-2.95,6.56,6.56,0,0,1-2.39-4.7c0-1.71,1-3.51,3-3.11a3.4,3.4,0,0,1,2.15,1.67,2.32,2.32,0,0,1-.24,2.58,1.62,1.62,0,0,1-2.31.13c-.82-.83,0-1.77,1-1.64a1.21,1.21,0,0,0-1.81,1.51,2.41,2.41,0,0,0,2.78,1.16,2.49,2.49,0,0,0,1.59-2.36,4.21,4.21,0,0,0-1.62-2.93,3.4,3.4,0,0,0-5,1.18A6.17,6.17,0,0,0,73,27.1c-.63-.46-1.27-.92-1.91-1.35-1.94-2.15-2.81-5.27-.32-7.52,2.29-2.08,6.58.55,8.87,1.35,3.78,1.32,8.65.7,10.44-3.36,1.19-2.69-.6-6.45-3.75-6.32-1.84.08-3.64,1-4.23,2.48a2.65,2.65,0,0,0-.29,1.19,2.75,2.75,0,0,0,2.75,2.74,2.53,2.53,0,0,0,2.4-3.5,2.38,2.38,0,0,0-2.47-1.14,2.41,2.41,0,0,0-1.27.53,2.36,2.36,0,0,0-.75,1.74,2,2,0,0,1,.44-1.89,3.54,3.54,0,0,1,1.51-1,4,4,0,0,1,3.36.1,3.85,3.85,0,0,1,1.51,4.47,5.93,5.93,0,0,1-4,3.66c-2.16.75-4.17.05-6.16-.79.2.08.94-.41,1.1-.55a2.4,2.4,0,0,0,.55-1,2.48,2.48,0,0,0-.27-2.29c.07,3.43-5.63,1.06-7.52,1.24a7,7,0,0,0-2.88.94A5.43,5.43,0,0,0,67.94,24c-4.88-2.2-9.76-1.81-15.29-.26-1.46.41-2.9.91-4.31,1.46-3.07,1-6.69,1.59-7.55-1.59a3.1,3.1,0,0,1,1.61-3.2,2.83,2.83,0,0,1,1.94-.14c2.09.69.09,3.47-1.25,1.93-.19-.21-.21-.9.15-1-.83.27-.73,1.1-.21,1.65a1.8,1.8,0,0,0,2.91-1.12c.23-2.37-2.72-2.5-4.19-1.55-2.2,1.43-2.85,4.08-.48,5.7a5.05,5.05,0,0,0,3.31.69c-1.89.64-4.5,1.88-6.53,1.51-1.6-.29-2.16-1.8-2.15-3.25a3.37,3.37,0,0,1,.67-2.06c.27-.37,1.34-1.38,1.87-1.23-2-.55-5.43.71-6,2.86A2.14,2.14,0,0,0,29.5,23c1.8.61,1.5,2.8,1.44,4.32a3.87,3.87,0,0,0,1.35,3.37,4.83,4.83,0,0,0,3.9.58c.3-.06.59-.15.88-.23-2.71,1.24-5.07,3.36-7.94,4.32-2.59.86-5.48,1.57-7.92.27-2.8-1.49-3-4.39-1.67-6.81.35-.65,1.28-2.32.47-3C17.88,24,16.1,27.5,15.86,29.19A8.06,8.06,0,0,0,17,34.4c1.33,2.2,4.09,2.82,6.7,2.77l-.17,0c-4,.59-7.13-1.12-8.37-5.57a9,9,0,0,1,2.5-9.22,7.37,7.37,0,0,1,9-.07A5.7,5.7,0,0,1,28.3,25,2.93,2.93,0,0,1,28,27.75c.29-.4,0-1.35-.23-1.74A2.94,2.94,0,0,0,26,24.7a3.47,3.47,0,0,0-3.43,1.52,3.23,3.23,0,0,0,1,4.3,3.65,3.65,0,0,0,5.7-2.36,6.68,6.68,0,0,0-.31-3.57C27.44,20.5,22.75,19,18.86,20.38a7,7,0,0,0-2.1,1.1A2.85,2.85,0,0,0,14,19.17c-1.23-.07-3.39,1-2.46,2.55-.25-.43.61-1,.93-1,.55,0,.79.54.92,1a6.71,6.71,0,0,1-.06,2.89c-.15.77-.34,1.52-.43,2.29a15.67,15.67,0,0,0,.27,5.91,9,9,0,0,0,.71,1.84,4.73,4.73,0,0,0-3.32-.33A5.19,5.19,0,0,0,8.28,36.1C7,37.53,5.6,39.53,3.64,40c-1.39.3-3.23-.14-3.08-1.88-.44,2.24.89,3.24,2.94,3.36,2.49.14,4.81-1,6.93-2.22,3-1.66,5.79-.86,9-.82,4.49.55,10.19-1.94,13.8-3.82,4.11-2.14,7.89-4.83,12-6.87.78-.38,1.52-.67,2.3-1-2.61,1.14-3.7,6.23-7.15,5.79-.33,0-.7-.22-.76-.55.07,1.2,1.4,1.7,2.46,1.7a3.7,3.7,0,0,0,3.36-2.31,3.17,3.17,0,0,0,3,4.63c2.72-.18,4.62-2.36,5.39-4.78a2.61,2.61,0,0,1-.72,1.13,2.29,2.29,0,0,1-3.69-2.46c.56-2,2.83-3.37,4.52-4.27A14.25,14.25,0,0,1,63.12,24c2.64.4,5,1.89,7.19,3.38A28.83,28.83,0,0,0,63,25.67a10.09,10.09,0,0,0-4.78.59c-.64.28-1.4.66-1.54,1.4-.33,1.62,1.21,1.93,2.5,1.78,1.91-.21,3.7-1,5.62-1.23a16.36,16.36,0,0,1,7.28.78,18.22,18.22,0,0,0-2.35-.12c-6.13.08-11.32,1.93-15.63,6.28a25.23,25.23,0,0,1-9.41,6.37c-2.77,1-7.83,2-9.65-1.19-.87-1.52-.06-3.5,1-4.68,1.66-1.85,4.28.65,3.23,2.57A1.69,1.69,0,0,1,38,39c-.71.07-1.08-.3-1-1-.47.67.37,1.57,1,1.8a2.36,2.36,0,0,0,2.19-.38c2.52-2,.3-5.4-2.43-5.29-4,.17-7.28,5.72-3.32,8.3,2.55,1.66,6.45.84,9.16.16a25,25,0,0,0,10.67-5.81,48.23,48.23,0,0,1,5.39-4.92A13.15,13.15,0,0,1,64.54,30a15.62,15.62,0,0,0-6.4,4.22A16.47,16.47,0,0,0,55,38.59,3.31,3.31,0,0,0,54.82,41c.77,1.7,2.32-.11,2.87-.93a30.36,30.36,0,0,0,2-4.24,8,8,0,0,1,3.47-4.11,6.94,6.94,0,0,0-2,3.16c-1.85,6.32,5.37,7.62,9.73,5.67,2.28-1,4-2.83,3.09-5.47-.83-2.43-3.85-3.48-6.14-2.73a3.85,3.85,0,0,0-2.55,2.13,2.56,2.56,0,0,0,2.36,3.55,2.08,2.08,0,0,0,2-.66c.4-.61.49-1.83-.29-2.18a1.07,1.07,0,0,1-.14,1.53,1.65,1.65,0,0,1-2.59-.84,2.24,2.24,0,0,1,1.24-2.49,3,3,0,0,1,2.83.62,3.76,3.76,0,0,1,1.19,4.36c-.78,2-3.52,2.4-5.33,2.13-3.17-.48-3.9-3.81-3.13-6.45,1-3.42,4.8-4.27,7.94-4.15a7.29,7.29,0,0,1,3.17.8c.79.44,1.66.84,2.4,1.35,4.06,2.78,9,5.87,14.09,5.6a48.47,48.47,0,0,0,6.1-1c1.23-.21,3,0,3.81,1.14a2.57,2.57,0,0,1,.17,2c.91-1,.51-3-.35-3.87a3.71,3.71,0,0,0-3.93-.49c.46-.54,1.12-.86,1.62-1.35a15.15,15.15,0,0,0,1.53-1.67,10.6,10.6,0,0,0,1.91-3.79,16.57,16.57,0,0,0,.46-5.06A21,21,0,0,0,101.92,20.2Z" transform="translate(-0.47 -0.5)"/>
</svg>
